…
You can install the released version of BoyBands from
[CRAN](https://CRAN.R-project.org) with:

``` r
install.packages("BoyBands")
```

# Analysis

First, let’s read the Bands dataset into the Rmd.

``` r
BoyBands
#> # A tibble: 55 x 7
#>    band           highest_pos danceSpeed featuring_artist  year month      day
#>    <chr>                <dbl> <chr>      <fct>            <dbl> <fct>    <dbl>
#>  1 IMx                     23 pop        no                2000 January      8
#>  2 Nu Flavor               27 slow       no                1998 January     31
#>  3 B2K                      1 pop        yes               2003 February     1
#>  4 Guys Next Door          42 slow       no                1991 February    23
#>  5 Musical Youth           10 pop        no                1983 February    26
#>  6 The Boys                13 pop        no                1989 February    25
#>  7 Soul for Real            2 pop        no                1995 March       18
#>  8 The Wanted               3 pop        no                2012 March       31
#>  9 Day26                   79 pop        no                2008 April       12
#> 10 All-4-One                1 slow       no                1994 May         21
#> # … with 45 more rows
```
…
